1024,1,1,1
1025,1,1,0.9416
1026,1,0.997566666666667,0.844966666666667
1027,1,0.9891,0.700133333333333
1028,1,0.9703,0.5336
1029,1,0.933066666666667,0.378266666666667
1030,1,0.875,0.251666666666667
1031,0.999933333333333,0.7958,0.155833333333333
1032,0.999833333333333,0.698633333333333,0.0929
1033,0.999833333333333,0.591433333333333,0.0526666666666667
1034,0.999666666666667,0.481933333333333,0.0306
1035,0.9992,0.376733333333333,0.0170666666666667
1036,0.998166666666667,0.281233333333333,0.00903333333333333
1037,0.996666666666667,0.205266666666667,0.00476666666666667
1038,0.993466666666667,0.144266666666667,0.0027
1039,0.988366666666667,0.0965666666666667,0.00156666666666667
1040,0.9812,0.0653,0.000833333333333333
1041,0.9694,0.0415666666666667,0.0004
1042,0.952633333333333,0.0264666666666667,0.000166666666666667
1043,0.929,0.0152666666666667,6.66666666666667e-05
1044,0.899933333333333,0.00923333333333333,
1045,0.863433333333333,0.0051,
1046,0.8204,0.00283333333333333,
1047,0.769833333333333,0.00176666666666667,
1048,0.712266666666667,0.000933333333333333,
1049,0.648666666666667,0.0005,
1050,0.5829,0.000233333333333333,
1051,0.5193,0.000166666666666667,
1052,0.452133333333333,3.33333333333333e-05,
1053,0.389333333333333,,
1054,0.331933333333333,,
1055,0.276233333333333,,
1056,0.228033333333333,,
1057,0.187066666666667,,
1058,0.149033333333333,,
1059,0.116066666666667,,
1060,0.09,,
1061,0.0687,,
1062,0.0531333333333333,,
1063,0.0399,,
1064,0.0293333333333333,,
1065,0.0212,,
1066,0.0153333333333333,,
1067,0.0117,,
1068,0.00863333333333333,,
1069,0.00633333333333333,,
1070,0.0048,,
1071,0.0035,,
1072,0.0024,,
1073,0.00176666666666667,,
1074,0.00113333333333333,,
1075,0.0008,,
1076,0.0005,,
1077,0.000433333333333333,,
1078,0.0004,,
1079,0.000366666666666667,,
1080,0.0003,,
1081,0.000266666666666667,,
1082,0.0002,,
1083,0.000133333333333333,,
1084,0.0001,,
1085,0.0001,,
1086,0.0001,,
1087,0.0001,,
1088,0.0001,,
1089,0.0001,,
1090,0.0001,,
1091,0.0001,,
1092,0.0001,,
1093,0.0001,,
1094,0.0001,,
1095,0.0001,,
1096,0.0001,,
1097,6.66666666666667e-05,,
1098,6.66666666666667e-05,,
1099,6.66666666666667e-05,,
1100,6.66666666666667e-05,,
1101,6.66666666666667e-05,,
1102,6.66666666666667e-05,,
1103,6.66666666666667e-05,,
1104,6.66666666666667e-05,,
1105,6.66666666666667e-05,,
1106,6.66666666666667e-05,,
1107,6.66666666666667e-05,,
1108,6.66666666666667e-05,,
1109,6.66666666666667e-05,,
1110,6.66666666666667e-05,,
1111,6.66666666666667e-05,,
1112,6.66666666666667e-05,,
1113,6.66666666666667e-05,,
1114,6.66666666666667e-05,,
1115,6.66666666666667e-05,,
1116,6.66666666666667e-05,,
1117,6.66666666666667e-05,,
1118,6.66666666666667e-05,,
1119,6.66666666666667e-05,,
1120,6.66666666666667e-05,,
1121,6.66666666666667e-05,,
1122,6.66666666666667e-05,,
1123,6.66666666666667e-05,,
1124,6.66666666666667e-05,,
1125,6.66666666666667e-05,,
1126,6.66666666666667e-05,,
1127,6.66666666666667e-05,,
1128,6.66666666666667e-05,,
1129,6.66666666666667e-05,,
1130,6.66666666666667e-05,,
1131,6.66666666666667e-05,,
1132,6.66666666666667e-05,,
1133,6.66666666666667e-05,,
1134,6.66666666666667e-05,,
1135,6.66666666666667e-05,,
1136,6.66666666666667e-05,,
1137,6.66666666666667e-05,,
1138,6.66666666666667e-05,,
1139,6.66666666666667e-05,,
1140,6.66666666666667e-05,,
1141,6.66666666666667e-05,,
1142,6.66666666666667e-05,,
1143,6.66666666666667e-05,,
1144,6.66666666666667e-05,,
1145,6.66666666666667e-05,,
1146,6.66666666666667e-05,,
1147,6.66666666666667e-05,,
1148,6.66666666666667e-05,,
1149,6.66666666666667e-05,,
1150,6.66666666666667e-05,,
1151,6.66666666666667e-05,,
1152,6.66666666666667e-05,,
1153,6.66666666666667e-05,,
1154,6.66666666666667e-05,,
1155,6.66666666666667e-05,,
1156,3.33333333333333e-05,,
1157,3.33333333333333e-05,,
1158,3.33333333333333e-05,,
1159,3.33333333333333e-05,,
1160,3.33333333333333e-05,,
1161,3.33333333333333e-05,,
1162,3.33333333333333e-05,,
1163,3.33333333333333e-05,,
1164,3.33333333333333e-05,,
1165,3.33333333333333e-05,,
1166,3.33333333333333e-05,,